Wishpets 01/22/18,,,,,,,,,
Image,ItemCode,Title,Section,UPC,VendorItem,Master Case,Cost,Price,Notes
,10075042,"10"" Baby Penguin 4  assort (02035-12)",Plush,637351020359,02035,12,$2.81,$7.99,
,10067513,"10"" Longhorn Steer Floppy  (82065TX-12)",Plush,637351820652,82065TX,12,$3.00,$6.99,
,10196850,"10"" Lying Patterned Cat 3 Asst. (73045-12)",Plush,637351730456,73045,12,$3.38,$6.99 ,
,10092545,"11"" Dragon Standing 4 assort (93090-12)",Plush,637351930900,93090,12,$4.13,$9.99,
,10153062,"11"" Grey Owl (95008-6)",Plush,637351950083,95008,6,$6.19,$12.99,
,10153061,"13"" Mammoth (55700-8)",Plush,637351557008,55700,8,$5.50,$12.99,
,10113240,"23"" Grey White Shark (04159-6)",Plush,637351041590,04159,6,$4.20,$9.99,
,10196849,"6"" Poseable Kitty Cat Grey (72174-12)",Plush,637351721744,72174,12,$1.99,$4.99 ,
,10067524,"7"" Belly Soft Zoo 8 Asst Sitting (52205-16)",Plush,637351522051,52205,16,$3.00,$5.99,
,10075046,"8"" Rabbit Crouching Natural 3 assort (32061-24)",Plush,637351320619,32061,24,$2.81,$6.99,
,10068327,"8"" Tyrannosaurus Standing (52940-24)",Plush,637351529401,52940,24,$2.25,$6.99,
,10067532,"9"" Unicorn Floppy w/Sparkle 2 Asst (93006-12)",Plush,637351930061,93006,12,$3.94,$7.99,
,,,,,,,,,
Turned Off,,,,,,,,,
Image,ItemCode,Title,Section,UPC,VendorItem,Master Case,Cost,Price,Notes
,10196847,"13"" Poseable Loveable Elephant (54241-6)",Plush,637351542417,54241,6,$5.00,11.99,Turned Off On 01/22/2018
,10196852,"13"" Poseable Loveable Panda (54248-6)",Plush,637351542486,54248,6,$5.00,11.99,Turned Off On 01/22/2018
,10067514,"10"" Sea Turtle Small (02003-24)",Plush,637351020038,02003,24,$2.63,$5.99,Turned Off On 01/22/2018
,10153057,"11"" Jaguar Floppy (54058-12)",Plush,637351540581,54058,12,$4.50,$9.99,Turned Off On 01/22/2018
,10165826,"11"" Red Panda, Floppy (54051-12)",Plush,637351540512,54051,12,$4.50,$9.99,Turned Off On 01/22/2018
,10068329,"9"" Horse Standing 3 Asst (92031-24)",Plush,637351920314,92031,24,$2.63,$6.99,Turned Off On 01/22/2018
,,,,,,,,,
,,,,,,,,,
,,,,,,,,,
,,,,,,,,,
,,,,,,,,,
,,,,,,,,,
,,,,,,,,,
,,,,,,,,,